EESchema Schematic File Version 2
LIBS:STM32F072RxTx
LIBS:tlv274
LIBS:LD3985M3xR
LIBS:BAT54W
LIBS:tlv272
LIBS:REF303x
LIBS:conn
LIBS:power
LIBS:device
LIBS:LM2776
LIBS:logo_madresistor
LIBS:RT9728Bx
LIBS:box0-cache
EELAYER 25 0
EELAYER END
$Descr A4 11693 8268
encoding utf-8
Sheet 6 8
Title "Box0"
Date "03 April 2016"
Rev "0.3"
Comp "Mad Resistor"
Comment1 "Analog In Frontend"
Comment2 ""
Comment3 ""
Comment4 ""
$EndDescr
$Comp
L C C55
U 1 1 5534FC56
P 8850 2500
F 0 "C55" H 8850 2600 40  0000 L CNN
F 1 "10uF" H 8856 2415 40  0000 L CNN
F 2 "Capacitors_SMD:C_1206" H 8888 2350 30  0001 C CNN
F 3 "~" H 8850 2500 60  0000 C CNN
	1    8850 2500
	1    0    0    -1  
$EndComp
$Comp
L C C59
U 1 1 5534FC5C
P 9100 2500
F 0 "C59" H 9100 2600 40  0000 L CNN
F 1 "100nF" H 9106 2415 40  0000 L CNN
F 2 "Capacitors_SMD:C_0603" H 9138 2350 30  0001 C CNN
F 3 "~" H 9100 2500 60  0000 C CNN
	1    9100 2500
	1    0    0    -1  
$EndComp
$Comp
L GND #PWR069
U 1 1 5534FC71
P 8850 3350
F 0 "#PWR069" H 8850 3350 30  0001 C CNN
F 1 "GND" H 8850 3280 30  0001 C CNN
F 2 "" H 8850 3350 60  0001 C CNN
F 3 "" H 8850 3350 60  0000 C CNN
	1    8850 3350
	1    0    0    -1  
$EndComp
$Comp
L GND #PWR070
U 1 1 5534FC77
P 9100 3350
F 0 "#PWR070" H 9100 3350 30  0001 C CNN
F 1 "GND" H 9100 3280 30  0001 C CNN
F 2 "" H 9100 3350 60  0001 C CNN
F 3 "" H 9100 3350 60  0000 C CNN
	1    9100 3350
	1    0    0    -1  
$EndComp
Text Label 9700 3050 2    60   ~ 0
RAIL1_V-
$Comp
L C C54
U 1 1 55350761
P 8850 3200
F 0 "C54" H 8850 3300 40  0000 L CNN
F 1 "10uF" H 8856 3115 40  0000 L CNN
F 2 "Capacitors_SMD:C_1206" H 8888 3050 30  0001 C CNN
F 3 "~" H 8850 3200 60  0000 C CNN
	1    8850 3200
	1    0    0    -1  
$EndComp
$Comp
L C C58
U 1 1 55350767
P 9100 3200
F 0 "C58" H 9100 3300 40  0000 L CNN
F 1 "100nF" H 9106 3115 40  0000 L CNN
F 2 "Capacitors_SMD:C_0603" H 9138 3050 30  0001 C CNN
F 3 "~" H 9100 3200 60  0000 C CNN
	1    9100 3200
	1    0    0    -1  
$EndComp
$Comp
L GND #PWR071
U 1 1 55350773
P 8850 2650
F 0 "#PWR071" H 8850 2650 30  0001 C CNN
F 1 "GND" H 8850 2580 30  0001 C CNN
F 2 "" H 8850 2650 60  0001 C CNN
F 3 "" H 8850 2650 60  0000 C CNN
	1    8850 2650
	1    0    0    -1  
$EndComp
$Comp
L GND #PWR072
U 1 1 55350779
P 9100 2650
F 0 "#PWR072" H 9100 2650 30  0001 C CNN
F 1 "GND" H 9100 2580 30  0001 C CNN
F 2 "" H 9100 2650 60  0001 C CNN
F 3 "" H 9100 2650 60  0000 C CNN
	1    9100 2650
	1    0    0    -1  
$EndComp
Text Label 9700 2350 2    60   ~ 0
RAIL1_V+
$Comp
L TLV274 U33
U 3 1 5537936E
P 5500 2200
F 0 "U33" H 5650 2400 60  0000 C CNN
F 1 "TLV274" H 5650 2000 50  0000 C CNN
F 2 "Housings_SSOP:TSSOP-14_4.4x5mm_Pitch0.65mm" H 5500 2200 60  0001 C CNN
F 3 "~" H 5500 2200 60  0000 C CNN
	3    5500 2200
	-1   0    0    -1  
$EndComp
$Comp
L R R37
U 1 1 553793CD
P 4150 2400
F 0 "R37" V 4230 2400 40  0000 C CNN
F 1 "10K" V 4157 2401 40  0000 C CNN
F 2 "Resistors_SMD:R_0603" V 4080 2400 30  0001 C CNN
F 3 "~" H 4150 2400 30  0000 C CNN
	1    4150 2400
	0    -1   -1   0   
$EndComp
$Comp
L R R36
U 1 1 553793DC
P 4150 2200
F 0 "R36" V 4230 2200 40  0000 C CNN
F 1 "10K" V 4157 2201 40  0000 C CNN
F 2 "Resistors_SMD:R_0603" V 4080 2200 30  0001 C CNN
F 3 "~" H 4150 2200 30  0000 C CNN
	1    4150 2200
	0    -1   -1   0   
$EndComp
$Comp
L C C46
U 1 1 55379410
P 4550 1850
F 0 "C46" H 4550 1950 40  0000 L CNN
F 1 "100nF" H 4556 1765 40  0000 L CNN
F 2 "Capacitors_SMD:C_0603" H 4588 1700 30  0001 C CNN
F 3 "~" H 4550 1850 60  0000 C CNN
	1    4550 1850
	1    0    0    -1  
$EndComp
$Comp
L GND #PWR073
U 1 1 5537941F
P 4550 2000
F 0 "#PWR073" H 4550 2000 30  0001 C CNN
F 1 "GND" H 4550 1930 30  0001 C CNN
F 2 "" H 4550 2000 60  0001 C CNN
F 3 "" H 4550 2000 60  0000 C CNN
	1    4550 2000
	-1   0    0    -1  
$EndComp
$Comp
L TLV274 U32
U 3 1 553794B0
P 2900 2200
F 0 "U32" H 3050 2400 60  0000 C CNN
F 1 "TLV274" H 3050 2000 50  0000 C CNN
F 2 "Housings_SSOP:TSSOP-14_4.4x5mm_Pitch0.65mm" H 2900 2200 60  0001 C CNN
F 3 "~" H 2900 2200 60  0000 C CNN
	3    2900 2200
	-1   0    0    -1  
$EndComp
$Comp
L R R32
U 1 1 553794E3
P 2000 2200
F 0 "R32" V 2080 2200 40  0000 C CNN
F 1 "220" V 2007 2201 40  0000 C CNN
F 2 "Resistors_SMD:R_0603" V 1930 2200 30  0001 C CNN
F 3 "~" H 2000 2200 30  0000 C CNN
	1    2000 2200
	0    -1   -1   0   
$EndComp
$Comp
L C C42
U 1 1 553794F2
P 1650 2400
F 0 "C42" H 1650 2500 40  0000 L CNN
F 1 "220pF" H 1656 2315 40  0000 L CNN
F 2 "Capacitors_SMD:C_0603" H 1688 2250 30  0001 C CNN
F 3 "~" H 1650 2400 60  0000 C CNN
F 4 "C0G/NP0" H 1650 2250 40  0000 C CNN "Type"
	1    1650 2400
	1    0    0    -1  
$EndComp
$Comp
L GND #PWR074
U 1 1 55379BB0
P 1650 2600
F 0 "#PWR074" H 1650 2600 30  0001 C CNN
F 1 "GND" H 1650 2530 30  0001 C CNN
F 2 "" H 1650 2600 60  0001 C CNN
F 3 "" H 1650 2600 60  0000 C CNN
	1    1650 2600
	1    0    0    -1  
$EndComp
$Comp
L C C57
U 1 1 55379FD7
P 8750 4200
F 0 "C57" H 8750 4300 40  0000 L CNN
F 1 "10uF" H 8756 4115 40  0000 L CNN
F 2 "Capacitors_SMD:C_1206" H 8788 4050 30  0001 C CNN
F 3 "~" H 8750 4200 60  0000 C CNN
	1    8750 4200
	1    0    0    -1  
$EndComp
$Comp
L C C61
U 1 1 55379FDD
P 9000 4200
F 0 "C61" H 9000 4300 40  0000 L CNN
F 1 "100nF" H 9006 4115 40  0000 L CNN
F 2 "Capacitors_SMD:C_0603" H 9038 4050 30  0001 C CNN
F 3 "~" H 9000 4200 60  0000 C CNN
	1    9000 4200
	1    0    0    -1  
$EndComp
$Comp
L GND #PWR075
U 1 1 55379FE9
P 8750 5050
F 0 "#PWR075" H 8750 5050 30  0001 C CNN
F 1 "GND" H 8750 4980 30  0001 C CNN
F 2 "" H 8750 5050 60  0001 C CNN
F 3 "" H 8750 5050 60  0000 C CNN
	1    8750 5050
	1    0    0    -1  
$EndComp
$Comp
L GND #PWR076
U 1 1 55379FEF
P 9000 5050
F 0 "#PWR076" H 9000 5050 30  0001 C CNN
F 1 "GND" H 9000 4980 30  0001 C CNN
F 2 "" H 9000 5050 60  0001 C CNN
F 3 "" H 9000 5050 60  0000 C CNN
	1    9000 5050
	1    0    0    -1  
$EndComp
Text Label 9600 4750 2    60   ~ 0
RAIL2_V-
$Comp
L C C56
U 1 1 5537A006
P 8750 4900
F 0 "C56" H 8750 5000 40  0000 L CNN
F 1 "10uF" H 8756 4815 40  0000 L CNN
F 2 "Capacitors_SMD:C_1206" H 8788 4750 30  0001 C CNN
F 3 "~" H 8750 4900 60  0000 C CNN
	1    8750 4900
	1    0    0    -1  
$EndComp
$Comp
L C C60
U 1 1 5537A00C
P 9000 4900
F 0 "C60" H 9000 5000 40  0000 L CNN
F 1 "100nF" H 9006 4815 40  0000 L CNN
F 2 "Capacitors_SMD:C_0603" H 9038 4750 30  0001 C CNN
F 3 "~" H 9000 4900 60  0000 C CNN
	1    9000 4900
	1    0    0    -1  
$EndComp
$Comp
L GND #PWR077
U 1 1 5537A018
P 8750 4350
F 0 "#PWR077" H 8750 4350 30  0001 C CNN
F 1 "GND" H 8750 4280 30  0001 C CNN
F 2 "" H 8750 4350 60  0001 C CNN
F 3 "" H 8750 4350 60  0000 C CNN
	1    8750 4350
	1    0    0    -1  
$EndComp
$Comp
L GND #PWR078
U 1 1 5537A01E
P 9000 4350
F 0 "#PWR078" H 9000 4350 30  0001 C CNN
F 1 "GND" H 9000 4280 30  0001 C CNN
F 2 "" H 9000 4350 60  0001 C CNN
F 3 "" H 9000 4350 60  0000 C CNN
	1    9000 4350
	1    0    0    -1  
$EndComp
Text Label 9600 4050 2    60   ~ 0
RAIL2_V+
Text Label 2550 1800 0    60   ~ 0
RAIL1_V+
Text Label 2550 2600 0    60   ~ 0
RAIL1_V-
Text Label 5150 1800 0    60   ~ 0
RAIL2_V+
Text Label 5150 2600 0    60   ~ 0
RAIL2_V-
$Comp
L GND #PWR079
U 1 1 553798CF
P 1150 2600
F 0 "#PWR079" H 1150 2600 30  0001 C CNN
F 1 "GND" H 1150 2530 30  0001 C CNN
F 2 "" H 1150 2600 60  0001 C CNN
F 3 "" H 1150 2600 60  0000 C CNN
	1    1150 2600
	1    0    0    -1  
$EndComp
Text GLabel 1150 1800 1    60   Input ~ 0
VDD
Text GLabel 4300 1650 0    60   Input ~ 0
VDDA
Text GLabel 8900 1950 0    60   Input ~ 0
ANALOG_NEG
$Comp
L TLV274 U33
U 4 1 55402D5A
P 5500 3650
F 0 "U33" H 5650 3850 60  0000 C CNN
F 1 "TLV274" H 5650 3450 50  0000 C CNN
F 2 "Housings_SSOP:TSSOP-14_4.4x5mm_Pitch0.65mm" H 5500 3650 60  0001 C CNN
F 3 "~" H 5500 3650 60  0000 C CNN
	4    5500 3650
	-1   0    0    -1  
$EndComp
$Comp
L R R39
U 1 1 55402D72
P 4150 3850
F 0 "R39" V 4230 3850 40  0000 C CNN
F 1 "10K" V 4157 3851 40  0000 C CNN
F 2 "Resistors_SMD:R_0603" V 4080 3850 30  0001 C CNN
F 3 "~" H 4150 3850 30  0000 C CNN
	1    4150 3850
	0    -1   -1   0   
$EndComp
$Comp
L R R38
U 1 1 55402D78
P 4150 3650
F 0 "R38" V 4230 3650 40  0000 C CNN
F 1 "10K" V 4157 3651 40  0000 C CNN
F 2 "Resistors_SMD:R_0603" V 4080 3650 30  0001 C CNN
F 3 "~" H 4150 3650 30  0000 C CNN
	1    4150 3650
	0    -1   -1   0   
$EndComp
$Comp
L C C47
U 1 1 55402D84
P 4550 3300
F 0 "C47" H 4550 3400 40  0000 L CNN
F 1 "100nF" H 4556 3215 40  0000 L CNN
F 2 "Capacitors_SMD:C_0603" H 4588 3150 30  0001 C CNN
F 3 "~" H 4550 3300 60  0000 C CNN
	1    4550 3300
	1    0    0    -1  
$EndComp
$Comp
L GND #PWR080
U 1 1 55402D8A
P 4550 3450
F 0 "#PWR080" H 4550 3450 30  0001 C CNN
F 1 "GND" H 4550 3380 30  0001 C CNN
F 2 "" H 4550 3450 60  0001 C CNN
F 3 "" H 4550 3450 60  0000 C CNN
	1    4550 3450
	-1   0    0    -1  
$EndComp
$Comp
L TLV274 U32
U 4 1 55402D90
P 2900 3650
F 0 "U32" H 3050 3850 60  0000 C CNN
F 1 "TLV274" H 3050 3450 50  0000 C CNN
F 2 "Housings_SSOP:TSSOP-14_4.4x5mm_Pitch0.65mm" H 2900 3650 60  0001 C CNN
F 3 "~" H 2900 3650 60  0000 C CNN
	4    2900 3650
	-1   0    0    -1  
$EndComp
$Comp
L R R33
U 1 1 55402D96
P 2000 3650
F 0 "R33" V 2080 3650 40  0000 C CNN
F 1 "220" V 2007 3651 40  0000 C CNN
F 2 "Resistors_SMD:R_0603" V 1930 3650 30  0001 C CNN
F 3 "~" H 2000 3650 30  0000 C CNN
	1    2000 3650
	0    -1   -1   0   
$EndComp
$Comp
L C C43
U 1 1 55402D9C
P 1650 3850
F 0 "C43" H 1650 3950 40  0000 L CNN
F 1 "220pF" H 1656 3765 40  0000 L CNN
F 2 "Capacitors_SMD:C_0603" H 1688 3700 30  0001 C CNN
F 3 "~" H 1650 3850 60  0000 C CNN
F 4 "C0G/NP0" H 1650 3700 40  0000 C CNN "Type"
	1    1650 3850
	1    0    0    -1  
$EndComp
$Comp
L GND #PWR081
U 1 1 55402DA2
P 1650 4050
F 0 "#PWR081" H 1650 4050 30  0001 C CNN
F 1 "GND" H 1650 3980 30  0001 C CNN
F 2 "" H 1650 4050 60  0001 C CNN
F 3 "" H 1650 4050 60  0000 C CNN
	1    1650 4050
	1    0    0    -1  
$EndComp
$Comp
L GND #PWR082
U 1 1 55402DB2
P 1150 4050
F 0 "#PWR082" H 1150 4050 30  0001 C CNN
F 1 "GND" H 1150 3980 30  0001 C CNN
F 2 "" H 1150 4050 60  0001 C CNN
F 3 "" H 1150 4050 60  0000 C CNN
	1    1150 4050
	1    0    0    -1  
$EndComp
Text GLabel 1150 3250 1    60   Input ~ 0
VDD
Text GLabel 4200 3100 0    60   Input ~ 0
VDDA
$Comp
L TLV274 U33
U 1 1 55402DDD
P 5500 5200
F 0 "U33" H 5650 5400 60  0000 C CNN
F 1 "TLV274" H 5650 5000 50  0000 C CNN
F 2 "Housings_SSOP:TSSOP-14_4.4x5mm_Pitch0.65mm" H 5500 5200 60  0001 C CNN
F 3 "~" H 5500 5200 60  0000 C CNN
	1    5500 5200
	-1   0    0    -1  
$EndComp
$Comp
L R R52
U 1 1 55402DE3
P 6500 4850
F 0 "R52" V 6580 4850 40  0000 C CNN
F 1 "510K" V 6507 4851 40  0000 C CNN
F 2 "Resistors_SMD:R_0603" V 6430 4850 30  0001 C CNN
F 3 "~" H 6500 4850 30  0000 C CNN
	1    6500 4850
	1    0    0    -1  
$EndComp
$Comp
L R R53
U 1 1 55402DE9
P 6500 5350
F 0 "R53" V 6580 5350 40  0000 C CNN
F 1 "1M" V 6507 5351 40  0000 C CNN
F 2 "Resistors_SMD:R_0603" V 6430 5350 30  0001 C CNN
F 3 "~" H 6500 5350 30  0000 C CNN
	1    6500 5350
	1    0    0    -1  
$EndComp
$Comp
L GND #PWR083
U 1 1 55402DEF
P 6500 5600
F 0 "#PWR083" H 6500 5600 30  0001 C CNN
F 1 "GND" H 6500 5530 30  0001 C CNN
F 2 "" H 6500 5600 60  0001 C CNN
F 3 "" H 6500 5600 60  0000 C CNN
	1    6500 5600
	1    0    0    -1  
$EndComp
$Comp
L R R41
U 1 1 55402DF5
P 4150 5400
F 0 "R41" V 4230 5400 40  0000 C CNN
F 1 "10K" V 4157 5401 40  0000 C CNN
F 2 "Resistors_SMD:R_0603" V 4080 5400 30  0001 C CNN
F 3 "~" H 4150 5400 30  0000 C CNN
	1    4150 5400
	0    -1   -1   0   
$EndComp
$Comp
L R R40
U 1 1 55402DFB
P 4150 5200
F 0 "R40" V 4230 5200 40  0000 C CNN
F 1 "10K" V 4157 5201 40  0000 C CNN
F 2 "Resistors_SMD:R_0603" V 4080 5200 30  0001 C CNN
F 3 "~" H 4150 5200 30  0000 C CNN
	1    4150 5200
	0    -1   -1   0   
$EndComp
$Comp
L C C48
U 1 1 55402E07
P 4550 4850
F 0 "C48" H 4550 4950 40  0000 L CNN
F 1 "100nF" H 4556 4765 40  0000 L CNN
F 2 "Capacitors_SMD:C_0603" H 4588 4700 30  0001 C CNN
F 3 "~" H 4550 4850 60  0000 C CNN
	1    4550 4850
	1    0    0    -1  
$EndComp
$Comp
L GND #PWR084
U 1 1 55402E0D
P 4550 5000
F 0 "#PWR084" H 4550 5000 30  0001 C CNN
F 1 "GND" H 4550 4930 30  0001 C CNN
F 2 "" H 4550 5000 60  0001 C CNN
F 3 "" H 4550 5000 60  0000 C CNN
	1    4550 5000
	-1   0    0    -1  
$EndComp
$Comp
L TLV274 U32
U 1 1 55402E13
P 2900 5200
F 0 "U32" H 3050 5400 60  0000 C CNN
F 1 "TLV274" H 3050 5000 50  0000 C CNN
F 2 "Housings_SSOP:TSSOP-14_4.4x5mm_Pitch0.65mm" H 2900 5200 60  0001 C CNN
F 3 "~" H 2900 5200 60  0000 C CNN
	1    2900 5200
	-1   0    0    -1  
$EndComp
$Comp
L R R34
U 1 1 55402E19
P 2000 5200
F 0 "R34" V 2080 5200 40  0000 C CNN
F 1 "220" V 2007 5201 40  0000 C CNN
F 2 "Resistors_SMD:R_0603" V 1930 5200 30  0001 C CNN
F 3 "~" H 2000 5200 30  0000 C CNN
	1    2000 5200
	0    -1   -1   0   
$EndComp
$Comp
L C C44
U 1 1 55402E1F
P 1650 5400
F 0 "C44" H 1650 5500 40  0000 L CNN
F 1 "220pF" H 1656 5315 40  0000 L CNN
F 2 "Capacitors_SMD:C_0603" H 1688 5250 30  0001 C CNN
F 3 "~" H 1650 5400 60  0000 C CNN
F 4 "C0G/NP0" H 1650 5250 40  0000 C CNN "Type"
	1    1650 5400
	1    0    0    -1  
$EndComp
$Comp
L GND #PWR085
U 1 1 55402E25
P 1650 5600
F 0 "#PWR085" H 1650 5600 30  0001 C CNN
F 1 "GND" H 1650 5530 30  0001 C CNN
F 2 "" H 1650 5600 60  0001 C CNN
F 3 "" H 1650 5600 60  0000 C CNN
	1    1650 5600
	1    0    0    -1  
$EndComp
$Comp
L GND #PWR086
U 1 1 55402E35
P 1150 5600
F 0 "#PWR086" H 1150 5600 30  0001 C CNN
F 1 "GND" H 1150 5530 30  0001 C CNN
F 2 "" H 1150 5600 60  0001 C CNN
F 3 "" H 1150 5600 60  0000 C CNN
	1    1150 5600
	1    0    0    -1  
$EndComp
Text GLabel 1150 4800 1    60   Input ~ 0
VDD
Text GLabel 4200 4650 0    60   Input ~ 0
VDDA
$Comp
L TLV274 U33
U 2 1 55402E60
P 5500 6700
F 0 "U33" H 5650 6900 60  0000 C CNN
F 1 "TLV274" H 5650 6500 50  0000 C CNN
F 2 "Housings_SSOP:TSSOP-14_4.4x5mm_Pitch0.65mm" H 5500 6700 60  0001 C CNN
F 3 "~" H 5500 6700 60  0000 C CNN
	2    5500 6700
	-1   0    0    -1  
$EndComp
$Comp
L R R43
U 1 1 55402E78
P 4150 6900
F 0 "R43" V 4230 6900 40  0000 C CNN
F 1 "10K" V 4157 6901 40  0000 C CNN
F 2 "Resistors_SMD:R_0603" V 4080 6900 30  0001 C CNN
F 3 "~" H 4150 6900 30  0000 C CNN
	1    4150 6900
	0    -1   -1   0   
$EndComp
$Comp
L R R42
U 1 1 55402E7E
P 4150 6700
F 0 "R42" V 4230 6700 40  0000 C CNN
F 1 "10K" V 4157 6701 40  0000 C CNN
F 2 "Resistors_SMD:R_0603" V 4080 6700 30  0001 C CNN
F 3 "~" H 4150 6700 30  0000 C CNN
	1    4150 6700
	0    -1   -1   0   
$EndComp
$Comp
L C C49
U 1 1 55402E8A
P 4550 6350
F 0 "C49" H 4550 6450 40  0000 L CNN
F 1 "100nF" H 4556 6265 40  0000 L CNN
F 2 "Capacitors_SMD:C_0603" H 4588 6200 30  0001 C CNN
F 3 "~" H 4550 6350 60  0000 C CNN
	1    4550 6350
	1    0    0    -1  
$EndComp
$Comp
L GND #PWR087
U 1 1 55402E90
P 4550 6500
F 0 "#PWR087" H 4550 6500 30  0001 C CNN
F 1 "GND" H 4550 6430 30  0001 C CNN
F 2 "" H 4550 6500 60  0001 C CNN
F 3 "" H 4550 6500 60  0000 C CNN
	1    4550 6500
	-1   0    0    -1  
$EndComp
$Comp
L TLV274 U32
U 2 1 55402E96
P 2900 6700
F 0 "U32" H 3050 6900 60  0000 C CNN
F 1 "TLV274" H 3050 6500 50  0000 C CNN
F 2 "Housings_SSOP:TSSOP-14_4.4x5mm_Pitch0.65mm" H 2900 6700 60  0001 C CNN
F 3 "~" H 2900 6700 60  0000 C CNN
	2    2900 6700
	-1   0    0    -1  
$EndComp
$Comp
L R R35
U 1 1 55402E9C
P 2000 6700
F 0 "R35" V 2080 6700 40  0000 C CNN
F 1 "220" V 2007 6701 40  0000 C CNN
F 2 "Resistors_SMD:R_0603" V 1930 6700 30  0001 C CNN
F 3 "~" H 2000 6700 30  0000 C CNN
	1    2000 6700
	0    -1   -1   0   
$EndComp
$Comp
L C C45
U 1 1 55402EA2
P 1650 6900
F 0 "C45" H 1650 7000 40  0000 L CNN
F 1 "220pF" H 1656 6815 40  0000 L CNN
F 2 "Capacitors_SMD:C_0603" H 1688 6750 30  0001 C CNN
F 3 "~" H 1650 6900 60  0000 C CNN
F 4 "C0G/NP0" H 1650 6750 40  0000 C CNN "Type"
	1    1650 6900
	1    0    0    -1  
$EndComp
$Comp
L GND #PWR088
U 1 1 55402EA8
P 1650 7100
F 0 "#PWR088" H 1650 7100 30  0001 C CNN
F 1 "GND" H 1650 7030 30  0001 C CNN
F 2 "" H 1650 7100 60  0001 C CNN
F 3 "" H 1650 7100 60  0000 C CNN
	1    1650 7100
	1    0    0    -1  
$EndComp
$Comp
L GND #PWR089
U 1 1 55402EB8
P 1150 7100
F 0 "#PWR089" H 1150 7100 30  0001 C CNN
F 1 "GND" H 1150 7030 30  0001 C CNN
F 2 "" H 1150 7100 60  0001 C CNN
F 3 "" H 1150 7100 60  0000 C CNN
	1    1150 7100
	1    0    0    -1  
$EndComp
Text GLabel 1150 6300 1    60   Input ~ 0
VDD
Text GLabel 4200 6150 0    60   Input ~ 0
VDDA
$Comp
L R R48
U 1 1 5540349E
P 6500 1850
F 0 "R48" V 6580 1850 40  0000 C CNN
F 1 "510K" V 6507 1851 40  0000 C CNN
F 2 "Resistors_SMD:R_0603" V 6430 1850 30  0001 C CNN
F 3 "~" H 6500 1850 30  0000 C CNN
	1    6500 1850
	1    0    0    -1  
$EndComp
$Comp
L R R49
U 1 1 554034A4
P 6500 2350
F 0 "R49" V 6580 2350 40  0000 C CNN
F 1 "1M" V 6507 2351 40  0000 C CNN
F 2 "Resistors_SMD:R_0603" V 6430 2350 30  0001 C CNN
F 3 "~" H 6500 2350 30  0000 C CNN
	1    6500 2350
	1    0    0    -1  
$EndComp
$Comp
L GND #PWR090
U 1 1 554034AA
P 6500 2600
F 0 "#PWR090" H 6500 2600 30  0001 C CNN
F 1 "GND" H 6500 2530 30  0001 C CNN
F 2 "" H 6500 2600 60  0001 C CNN
F 3 "" H 6500 2600 60  0000 C CNN
	1    6500 2600
	1    0    0    -1  
$EndComp
$Comp
L R R50
U 1 1 554034BD
P 6500 3300
F 0 "R50" V 6580 3300 40  0000 C CNN
F 1 "510K" V 6507 3301 40  0000 C CNN
F 2 "Resistors_SMD:R_0603" V 6430 3300 30  0001 C CNN
F 3 "~" H 6500 3300 30  0000 C CNN
	1    6500 3300
	1    0    0    -1  
$EndComp
$Comp
L R R51
U 1 1 554034C3
P 6500 3800
F 0 "R51" V 6580 3800 40  0000 C CNN
F 1 "1M" V 6507 3801 40  0000 C CNN
F 2 "Resistors_SMD:R_0603" V 6430 3800 30  0001 C CNN
F 3 "~" H 6500 3800 30  0000 C CNN
	1    6500 3800
	1    0    0    -1  
$EndComp
$Comp
L GND #PWR091
U 1 1 554034C9
P 6500 4050
F 0 "#PWR091" H 6500 4050 30  0001 C CNN
F 1 "GND" H 6500 3980 30  0001 C CNN
F 2 "" H 6500 4050 60  0001 C CNN
F 3 "" H 6500 4050 60  0000 C CNN
	1    6500 4050
	1    0    0    -1  
$EndComp
$Comp
L R R54
U 1 1 554034DC
P 6500 6400
F 0 "R54" V 6580 6400 40  0000 C CNN
F 1 "510K" V 6507 6401 40  0000 C CNN
F 2 "Resistors_SMD:R_0603" V 6430 6400 30  0001 C CNN
F 3 "~" H 6500 6400 30  0000 C CNN
	1    6500 6400
	1    0    0    -1  
$EndComp
$Comp
L R R55
U 1 1 554034E2
P 6500 6900
F 0 "R55" V 6580 6900 40  0000 C CNN
F 1 "1M" V 6507 6901 40  0000 C CNN
F 2 "Resistors_SMD:R_0603" V 6430 6900 30  0001 C CNN
F 3 "~" H 6500 6900 30  0000 C CNN
	1    6500 6900
	1    0    0    -1  
$EndComp
$Comp
L GND #PWR092
U 1 1 554034E8
P 6500 7150
F 0 "#PWR092" H 6500 7150 30  0001 C CNN
F 1 "GND" H 6500 7080 30  0001 C CNN
F 2 "" H 6500 7150 60  0001 C CNN
F 3 "" H 6500 7150 60  0000 C CNN
	1    6500 7150
	1    0    0    -1  
$EndComp
Text Label 700  2200 0    60   ~ 0
OUT0
Text Label 700  3650 0    60   ~ 0
OUT1
Text Label 700  5200 0    60   ~ 0
OUT2
Text Label 700  6700 0    60   ~ 0
OUT3
Text Label 6700 1550 2    60   ~ 0
IN0
Text Label 6700 3000 2    60   ~ 0
IN1
Text Label 6700 4550 2    60   ~ 0
IN2
Text Label 6700 6150 2    60   ~ 0
IN3
Entry Wire Line
	8300 5800 8400 5900
Entry Wire Line
	8300 5900 8400 6000
Entry Wire Line
	8300 6000 8400 6100
Entry Wire Line
	8300 6100 8400 6200
Text Label 8700 5900 2    60   ~ 0
OUT0
Text Label 8700 6000 2    60   ~ 0
OUT1
Text Label 8700 6100 2    60   ~ 0
OUT2
Text Label 8700 6200 2    60   ~ 0
OUT3
Text HLabel 8400 5700 2    60   Output ~ 0
OUT[0..3]
Entry Wire Line
	9050 5800 9150 5900
Entry Wire Line
	9050 5900 9150 6000
Entry Wire Line
	9050 6000 9150 6100
Entry Wire Line
	9050 6100 9150 6200
Text Label 9450 5900 2    60   ~ 0
IN0
Text Label 9450 6000 2    60   ~ 0
IN1
Text Label 9450 6100 2    60   ~ 0
IN2
Text Label 9450 6200 2    60   ~ 0
IN3
Text HLabel 9150 5700 2    60   Input ~ 0
IN[0..3]
Text Notes 7900 5300 0    60   ~ 0
Note: Near OpAmp
Text Notes 7900 3450 0    60   ~ 0
Note: Near OpAmp
$Comp
L BAT54SW U28
U 1 1 5548E861
P 1150 2200
F 0 "U28" H 1050 2100 40  0000 C CNN
F 1 "BAT54SW" H 1150 2400 40  0000 C CNN
F 2 "SMD_Packages:SOT-323" H 1150 2300 60  0001 C CNN
F 3 "~" V 1150 2200 60  0001 C CNN
	1    1150 2200
	1    0    0    -1  
$EndComp
$Comp
L BAT54SW U29
U 1 1 5548E87C
P 1150 3650
F 0 "U29" H 1050 3550 40  0000 C CNN
F 1 "BAT54SW" H 1150 3850 40  0000 C CNN
F 2 "SMD_Packages:SOT-323" H 1150 3750 60  0001 C CNN
F 3 "~" V 1150 3650 60  0001 C CNN
	1    1150 3650
	1    0    0    -1  
$EndComp
$Comp
L BAT54SW U30
U 1 1 5548E890
P 1150 5200
F 0 "U30" H 1050 5100 40  0000 C CNN
F 1 "BAT54SW" H 1150 5400 40  0000 C CNN
F 2 "SMD_Packages:SOT-323" H 1150 5300 60  0001 C CNN
F 3 "~" V 1150 5200 60  0001 C CNN
	1    1150 5200
	1    0    0    -1  
$EndComp
$Comp
L BAT54SW U31
U 1 1 5548E8A4
P 1150 6700
F 0 "U31" H 1050 6600 40  0000 C CNN
F 1 "BAT54SW" H 1150 6900 40  0000 C CNN
F 2 "SMD_Packages:SOT-323" H 1150 6800 60  0001 C CNN
F 3 "~" V 1150 6700 60  0001 C CNN
	1    1150 6700
	1    0    0    -1  
$EndComp
Text GLabel 8900 1500 0    60   Input ~ 0
ANALOG_POS
Wire Wire Line
	8450 4750 9600 4750
Wire Wire Line
	8450 4050 9600 4050
Connection ~ 9000 4750
Connection ~ 9000 4050
Connection ~ 9100 3050
Connection ~ 9100 2350
Connection ~ 5000 2200
Connection ~ 2400 2200
Connection ~ 1650 2200
Connection ~ 8750 4050
Connection ~ 8750 4750
Wire Wire Line
	3400 1550 2400 1550
Wire Wire Line
	2400 1550 2400 2200
Wire Wire Line
	3400 1550 3400 2100
Wire Wire Line
	5000 1550 6000 1550
Wire Wire Line
	6000 1550 6000 2100
Connection ~ 8850 2350
Connection ~ 8850 3050
Wire Wire Line
	8500 3050 9700 3050
Wire Wire Line
	5000 1550 5000 2400
Wire Wire Line
	3900 2200 3900 2400
Wire Wire Line
	3900 2300 3400 2300
Connection ~ 3900 2300
Wire Wire Line
	2400 2200 2150 2200
Wire Wire Line
	4300 1650 4550 1650
Wire Wire Line
	700  2200 1850 2200
Connection ~ 1150 2200
Wire Notes Line
	7850 1250 7850 3500
Wire Notes Line
	7850 3500 10150 3500
Wire Notes Line
	10150 3500 10150 1250
Wire Notes Line
	10150 2100 7850 2100
Wire Notes Line
	7850 3800 7850 5350
Wire Notes Line
	7850 5350 10150 5350
Wire Notes Line
	10150 5350 10150 3800
Wire Notes Line
	10150 3800 7850 3800
Wire Wire Line
	5000 2400 4300 2400
Connection ~ 5000 3650
Connection ~ 2400 3650
Connection ~ 1650 3650
Wire Wire Line
	3400 3000 2400 3000
Wire Wire Line
	2400 3000 2400 3650
Wire Wire Line
	3400 3000 3400 3550
Wire Wire Line
	5000 3000 6000 3000
Wire Wire Line
	6000 3000 6000 3550
Wire Wire Line
	5000 3000 5000 3850
Wire Wire Line
	3900 3650 3900 3850
Wire Wire Line
	3900 3750 3400 3750
Connection ~ 3900 3750
Wire Wire Line
	2400 3650 2150 3650
Wire Wire Line
	700  3650 1850 3650
Connection ~ 1150 3650
Wire Wire Line
	5000 3850 4300 3850
Wire Wire Line
	6500 4550 6700 4550
Wire Wire Line
	6500 4550 6500 4700
Connection ~ 6500 5100
Connection ~ 5000 5200
Connection ~ 2400 5200
Connection ~ 1650 5200
Wire Wire Line
	3400 4550 2400 4550
Wire Wire Line
	2400 4550 2400 5200
Wire Wire Line
	3400 4550 3400 5100
Wire Wire Line
	5000 4550 6000 4550
Wire Wire Line
	6000 4550 6000 5100
Wire Wire Line
	5000 4550 5000 5400
Wire Wire Line
	3900 5200 3900 5400
Wire Wire Line
	3900 5300 3400 5300
Connection ~ 3900 5300
Wire Wire Line
	2400 5200 2150 5200
Wire Wire Line
	700  5200 1850 5200
Connection ~ 1150 5200
Wire Wire Line
	5000 5400 4300 5400
Connection ~ 5000 6700
Connection ~ 2400 6700
Connection ~ 1650 6700
Wire Wire Line
	3400 6050 2400 6050
Wire Wire Line
	2400 6050 2400 6700
Wire Wire Line
	3400 6050 3400 6600
Wire Wire Line
	5000 6050 6000 6050
Wire Wire Line
	6000 6050 6000 6600
Wire Wire Line
	5000 6050 5000 6900
Wire Wire Line
	3900 6700 3900 6900
Wire Wire Line
	3900 6800 3400 6800
Connection ~ 3900 6800
Wire Wire Line
	2400 6700 2150 6700
Wire Wire Line
	700  6700 1850 6700
Connection ~ 1150 6700
Wire Wire Line
	5000 6900 4300 6900
Wire Wire Line
	6250 5100 6250 5300
Wire Wire Line
	6250 5100 6500 5100
Wire Wire Line
	6250 5300 6000 5300
Wire Wire Line
	6500 1550 6700 1550
Wire Wire Line
	6500 1550 6500 1700
Connection ~ 6500 2100
Wire Wire Line
	6250 2100 6250 2300
Wire Wire Line
	6250 2100 6500 2100
Wire Wire Line
	6250 2300 6000 2300
Wire Wire Line
	6500 3000 6700 3000
Wire Wire Line
	6500 3000 6500 3150
Connection ~ 6500 3550
Wire Wire Line
	6250 3550 6250 3750
Wire Wire Line
	6250 3550 6500 3550
Wire Wire Line
	6250 3750 6000 3750
Wire Wire Line
	6500 6150 6700 6150
Wire Wire Line
	6500 6150 6500 6250
Connection ~ 6500 6650
Wire Wire Line
	6250 6650 6500 6650
Wire Wire Line
	3000 1800 2550 1800
Wire Wire Line
	3000 2600 2550 2600
Wire Wire Line
	5600 1800 5150 1800
Wire Wire Line
	5600 2600 5150 2600
Wire Notes Line
	600  1200 6800 1200
Wire Notes Line
	6800 1200 6800 7400
Wire Notes Line
	6800 7400 600  7400
Wire Notes Line
	600  7400 600  1200
Wire Wire Line
	6000 6800 6250 6800
Wire Wire Line
	6250 6800 6250 6650
Wire Wire Line
	8400 5900 8700 5900
Wire Wire Line
	8400 6000 8700 6000
Wire Wire Line
	8400 6100 8700 6100
Wire Wire Line
	8400 6200 8700 6200
Wire Bus Line
	8400 5700 8300 5700
Wire Bus Line
	8300 5700 8300 6100
Wire Wire Line
	9150 5900 9450 5900
Wire Wire Line
	9150 6000 9450 6000
Wire Wire Line
	9150 6100 9450 6100
Wire Wire Line
	9150 6200 9450 6200
Wire Bus Line
	9150 5700 9050 5700
Wire Bus Line
	9050 5700 9050 6100
Wire Wire Line
	8500 2350 9700 2350
Wire Wire Line
	1650 2250 1650 2200
Wire Wire Line
	3900 2200 4000 2200
Wire Wire Line
	3900 2400 4000 2400
Wire Wire Line
	6500 2000 6500 2200
Wire Wire Line
	6500 2600 6500 2500
Wire Wire Line
	6500 3450 6500 3650
Wire Wire Line
	6500 3950 6500 4050
Wire Wire Line
	3900 3650 4000 3650
Wire Wire Line
	3900 3850 4000 3850
Wire Wire Line
	1650 3650 1650 3700
Wire Wire Line
	1650 5200 1650 5250
Wire Wire Line
	1650 5550 1650 5600
Wire Wire Line
	3900 5200 4000 5200
Wire Wire Line
	3900 5400 4000 5400
Wire Wire Line
	4550 1650 4550 1700
Wire Wire Line
	4550 3100 4550 3150
Wire Wire Line
	4550 4650 4550 4700
Wire Wire Line
	6500 5000 6500 5200
Wire Wire Line
	6500 5500 6500 5600
Wire Wire Line
	6500 6550 6500 6750
Wire Wire Line
	6500 7050 6500 7150
Wire Wire Line
	3900 6700 4000 6700
Wire Wire Line
	3900 6900 4000 6900
Wire Wire Line
	1650 6750 1650 6700
Wire Wire Line
	1650 7100 1650 7050
Wire Wire Line
	4550 6150 4550 6200
Wire Notes Line
	8200 6250 9650 6250
Wire Notes Line
	8200 6250 8200 5550
Wire Notes Line
	8200 5550 9650 5550
Wire Notes Line
	8950 5550 8950 6250
Wire Notes Line
	9650 5550 9650 6250
Wire Wire Line
	4400 3650 4400 3100
Wire Wire Line
	4300 3650 4400 3650
Wire Wire Line
	4200 3100 4550 3100
Connection ~ 4400 3100
Wire Wire Line
	4300 5200 4400 5200
Wire Wire Line
	4400 5200 4400 4650
Connection ~ 4400 4650
Wire Wire Line
	4200 4650 4550 4650
Wire Wire Line
	4400 6150 4400 6700
Wire Wire Line
	4200 6150 4550 6150
Connection ~ 4400 6150
$Comp
L R R11
U 1 1 55F5B901
P 9150 1500
F 0 "R11" V 9230 1500 50  0000 C CNN
F 1 "10" V 9150 1500 50  0000 C CNN
F 2 "Resistors_SMD:R_0603" V 9080 1500 30  0001 C CNN
F 3 "" H 9150 1500 30  0000 C CNN
	1    9150 1500
	0    1    1    0   
$EndComp
$Comp
L R R12
U 1 1 55F5B9CD
P 9150 1950
F 0 "R12" V 9230 1950 50  0000 C CNN
F 1 "10" V 9150 1950 50  0000 C CNN
F 2 "Resistors_SMD:R_0603" V 9080 1950 30  0001 C CNN
F 3 "" H 9150 1950 30  0000 C CNN
	1    9150 1950
	0    1    1    0   
$EndComp
Wire Wire Line
	8900 1500 9000 1500
Wire Wire Line
	8900 1950 9000 1950
$Comp
L PWR_FLAG #FLG093
U 1 1 55F64B32
P 9350 1950
F 0 "#FLG093" H 9350 2045 50  0001 C CNN
F 1 "PWR_FLAG" H 9350 2130 50  0000 C CNN
F 2 "" H 9350 1950 60  0000 C CNN
F 3 "" H 9350 1950 60  0000 C CNN
	1    9350 1950
	1    0    0    -1  
$EndComp
$Comp
L PWR_FLAG #FLG094
U 1 1 55F64CFF
P 9350 1500
F 0 "#FLG094" H 9350 1595 50  0001 C CNN
F 1 "PWR_FLAG" H 9350 1680 50  0000 C CNN
F 2 "" H 9350 1500 60  0000 C CNN
F 3 "" H 9350 1500 60  0000 C CNN
	1    9350 1500
	1    0    0    -1  
$EndComp
Wire Wire Line
	9300 1950 9600 1950
Text Label 9600 1950 2    60   ~ 0
NEG
Text Label 9600 1500 2    60   ~ 0
POS
Wire Wire Line
	9300 1500 9600 1500
Wire Notes Line
	10150 1250 7850 1250
Text Label 8500 3050 0    60   ~ 0
NEG
Text Label 8500 2350 0    60   ~ 0
POS
Text Label 8450 4750 0    60   ~ 0
NEG
Text Label 8450 4050 0    60   ~ 0
POS
Connection ~ 9350 1500
Connection ~ 9350 1950
Wire Notes Line
	1500 1450 1500 7300
Wire Notes Line
	1500 1450 1850 1450
Wire Notes Line
	1850 1450 1850 7300
Wire Notes Line
	1850 7300 1500 7300
Text Notes 1350 1400 0    60   ~ 0
Note: Near uC
Wire Notes Line
	7550 3950 7550 3900
Wire Notes Line
	2300 1450 2300 7300
Wire Notes Line
	2300 7300 3600 7300
Wire Notes Line
	3600 7300 3600 1450
Wire Notes Line
	3600 1450 2300 1450
Text Notes 2800 1400 0    60   ~ 0
Buffer
Wire Notes Line
	4400 7700 4350 7700
Wire Wire Line
	4400 6700 4300 6700
Wire Wire Line
	4300 2200 4400 2200
Wire Wire Line
	4400 2200 4400 1650
Connection ~ 4400 1650
Wire Notes Line
	3750 7300 6150 7300
Wire Notes Line
	6150 7300 6150 1450
Wire Notes Line
	6150 1450 3750 1450
Wire Notes Line
	3750 1450 3750 7300
Text Notes 4900 1400 0    60   ~ 0
Offset
Wire Notes Line
	4800 1550 4800 7200
Wire Wire Line
	1650 4050 1650 4000
Wire Wire Line
	1650 2600 1650 2550
$EndSCHEMATC
