EESchema Schematic File Version 2
LIBS:STM32F072RxTx
LIBS:tlv274
LIBS:LD3985M3xR
LIBS:BAT54W
LIBS:tlv272
LIBS:REF303x
LIBS:conn
LIBS:power
LIBS:device
LIBS:LM2776
LIBS:logo_madresistor
LIBS:RT9728Bx
LIBS:box0-cache
EELAYER 25 0
EELAYER END
$Descr A4 11693 8268
encoding utf-8
Sheet 2 8
Title "Box0"
Date "03 April 2016"
Rev "0.3"
Comp "Mad Resistor"
Comment1 "Controller"
Comment2 ""
Comment3 ""
Comment4 ""
$EndDescr
$Comp
L C C97
U 1 1 5541620B
P 3350 7100
F 0 "C97" H 3350 7200 40  0000 L CNN
F 1 "27pF" H 3356 7015 40  0000 L CNN
F 2 "Capacitors_SMD:C_0603" H 3388 6950 30  0001 C CNN
F 3 "~" H 3350 7100 60  0000 C CNN
F 4 "C0G/NP0" H 3500 6950 40  0000 C CNN "Type"
	1    3350 7100
	1    0    0    -1  
$EndComp
$Comp
L C C96
U 1 1 55416211
P 2750 7100
F 0 "C96" H 2750 7200 40  0000 L CNN
F 1 "27pF" H 2756 7015 40  0000 L CNN
F 2 "Capacitors_SMD:C_0603" H 2788 6950 30  0001 C CNN
F 3 "~" H 2750 7100 60  0000 C CNN
F 4 "C0G/NP0" H 2900 6950 40  0000 C CNN "Type"
	1    2750 7100
	-1   0    0    -1  
$EndComp
$Comp
L GND #PWR01
U 1 1 55416217
P 3350 7250
F 0 "#PWR01" H 3350 7250 30  0001 C CNN
F 1 "GND" H 3350 7180 30  0001 C CNN
F 2 "" H 3350 7250 60  0001 C CNN
F 3 "" H 3350 7250 60  0000 C CNN
	1    3350 7250
	-1   0    0    -1  
$EndComp
$Comp
L GND #PWR02
U 1 1 5541621D
P 2750 7250
F 0 "#PWR02" H 2750 7250 30  0001 C CNN
F 1 "GND" H 2750 7180 30  0001 C CNN
F 2 "" H 2750 7250 60  0001 C CNN
F 3 "" H 2750 7250 60  0000 C CNN
	1    2750 7250
	-1   0    0    -1  
$EndComp
Text Label 1650 1850 0    60   ~ 0
ADC_IN0
Text Label 1650 1950 0    60   ~ 0
ADC_IN1
Text Label 1650 2050 0    60   ~ 0
ADC_IN2
Text Label 1650 2150 0    60   ~ 0
ADC_IN3
Text Label 1650 2250 0    60   ~ 0
DAC_OUT1
Text Label 1650 2350 0    60   ~ 0
DAC_OUT2
Text Label 1650 4400 0    60   ~ 0
I2C1_SCL
Text Label 1650 4500 0    60   ~ 0
I2C1_SDA
Text Label 1650 4900 0    60   ~ 0
SPI2_SCK
Text Label 1650 5000 0    60   ~ 0
SPI2_MISO
Text Label 1650 5100 0    60   ~ 0
SPI2_MOSI
Text Notes 2650 7650 0    60   ~ 0
Note: Near to uC\n
Text Label 1650 2650 0    60   ~ 0
TIM1_CH1
Text Label 1650 2850 0    60   ~ 0
USART1_RX
Text Label 1650 2750 0    60   ~ 0
USART1_TX
Text Label 1650 3700 0    60   ~ 0
PB1
Text Label 1650 3800 0    60   ~ 0
PB2
Text Label 1650 3900 0    60   ~ 0
PB3
Text Label 1650 4000 0    60   ~ 0
PB4
Text Label 1650 4100 0    60   ~ 0
PB5
Text Label 1650 4200 0    60   ~ 0
PB6
Text Label 1650 4300 0    60   ~ 0
PB7
Text Label 1650 4800 0    60   ~ 0
PB12/SPI2_SS
Text Label 6100 3900 2    60   ~ 0
PC6
Text Label 6100 4000 2    60   ~ 0
PC7
Text Label 6100 4100 2    60   ~ 0
PC8
Text Notes 2700 6300 0    60   ~ 0
for other freq.\nsee "config.h"
Text Label 1650 4700 0    60   ~ 0
TIM2_CH4
Text Label 3450 850  3    60   ~ 0
UC_VDDIO2
Text Label 4200 850  3    60   ~ 0
UC_VDDA
$Comp
L GND #PWR03
U 1 1 5541624F
P 3650 5650
F 0 "#PWR03" H 3650 5650 30  0001 C CNN
F 1 "GND" H 3650 5580 30  0001 C CNN
F 2 "" H 3650 5650 60  0001 C CNN
F 3 "" H 3650 5650 60  0000 C CNN
	1    3650 5650
	1    0    0    -1  
$EndComp
$Comp
L GND #PWR04
U 1 1 55416268
P 4150 5650
F 0 "#PWR04" H 4150 5650 30  0001 C CNN
F 1 "GND" H 4150 5580 30  0001 C CNN
F 2 "" H 4150 5650 60  0001 C CNN
F 3 "" H 4150 5650 60  0000 C CNN
	1    4150 5650
	1    0    0    -1  
$EndComp
Text HLabel 8450 3850 0    60   Input ~ 0
SPI0.MISO
Text HLabel 8450 3950 0    60   BiDi ~ 0
SPI0.MOSI
Text HLabel 8450 3750 0    60   Output ~ 0
SPI0.SCLK
Text Label 9350 3750 2    60   ~ 0
SPI2_SCK
Text Label 9350 3850 2    60   ~ 0
SPI2_MISO
Text Label 9350 3950 2    60   ~ 0
SPI2_MOSI
Text Label 9350 4300 2    60   ~ 0
PB12/SPI2_SS
Text Label 9350 4400 2    60   ~ 0
PC6
Text Label 9350 4500 2    60   ~ 0
PC7
Text Label 9350 4600 2    60   ~ 0
PC8
Text HLabel 10150 5950 0    60   Output ~ 0
PWM0.0
Text HLabel 10150 6250 0    60   Output ~ 0
PWM1.0
Text Label 10800 4800 2    60   ~ 0
I2C1_SCL
Text Label 10800 4900 2    60   ~ 0
I2C1_SDA
Text Label 9150 6200 2    60   ~ 0
USART1_RX
Text Label 9150 6300 2    60   ~ 0
USART1_TX
Text HLabel 10300 4800 0    60   Output ~ 0
I2C0.SCL
Text HLabel 10300 4900 0    60   BiDi ~ 0
I2C0.SDA
Text HLabel 8600 6200 0    60   Input ~ 0
UART0.RX
Text HLabel 8600 6300 0    60   Output ~ 0
UART0.TX
Text Label 9200 5400 2    60   ~ 0
ADC_IN3
Text Label 9200 5500 2    60   ~ 0
ADC_IN2
Text Label 9200 5600 2    60   ~ 0
ADC_IN1
Text Label 9200 5700 2    60   ~ 0
ADC_IN0
Text Label 9250 4950 2    60   ~ 0
DAC_OUT1
Text Label 9250 5050 2    60   ~ 0
DAC_OUT2
Text HLabel 10500 5350 0    60   Input ~ 0
~FAULT_ANALOG
Text HLabel 10500 5250 0    60   Output ~ 0
EN_ANALOG
Text HLabel 10500 5550 0    60   Output ~ 0
EN_DIGITAL
Text HLabel 10500 5650 0    60   Input ~ 0
~FAULT_DIGITAL
$Comp
L LED D9
U 1 1 554324EB
P 1950 6800
F 0 "D9" H 1950 6900 50  0000 C CNN
F 1 "LED_RED" H 1950 6700 50  0000 C CNN
F 2 "LEDs:LED-0603" H 1950 6800 60  0001 C CNN
F 3 "~" H 1950 6800 60  0000 C CNN
	1    1950 6800
	-1   0    0    -1  
$EndComp
$Comp
L R R72
U 1 1 554324F1
P 1550 6800
F 0 "R72" V 1630 6800 40  0000 C CNN
F 1 "510" V 1557 6801 40  0000 C CNN
F 2 "Resistors_SMD:R_0603" V 1480 6800 30  0001 C CNN
F 3 "~" H 1550 6800 30  0000 C CNN
	1    1550 6800
	0    1    1    0   
$EndComp
$Comp
L GND #PWR05
U 1 1 554324F7
P 2150 6950
F 0 "#PWR05" H 2150 6950 30  0001 C CNN
F 1 "GND" H 2150 6880 30  0001 C CNN
F 2 "" H 2150 6950 60  0001 C CNN
F 3 "" H 2150 6950 60  0000 C CNN
	1    2150 6950
	1    0    0    -1  
$EndComp
$Comp
L LED D8
U 1 1 554324FD
P 1950 7350
F 0 "D8" H 1950 7450 50  0000 C CNN
F 1 "LED_BLUE" H 1950 7250 50  0000 C CNN
F 2 "LEDs:LED-0603" H 1950 7350 60  0001 C CNN
F 3 "~" H 1950 7350 60  0000 C CNN
	1    1950 7350
	-1   0    0    -1  
$EndComp
$Comp
L R R71
U 1 1 55432503
P 1550 7350
F 0 "R71" V 1630 7350 40  0000 C CNN
F 1 "510" V 1557 7351 40  0000 C CNN
F 2 "Resistors_SMD:R_0603" V 1480 7350 30  0001 C CNN
F 3 "~" H 1550 7350 30  0000 C CNN
	1    1550 7350
	0    -1   1    0   
$EndComp
$Comp
L GND #PWR06
U 1 1 55432509
P 2150 7500
F 0 "#PWR06" H 2150 7500 30  0001 C CNN
F 1 "GND" H 2150 7430 30  0001 C CNN
F 2 "" H 2150 7500 60  0001 C CNN
F 3 "" H 2150 7500 60  0000 C CNN
	1    2150 7500
	1    0    0    -1  
$EndComp
Text Notes 1350 7050 0    60   ~ 0
Digital
Text Label 650  7350 0    60   ~ 0
PA7/TIM14_CH1
Text Label 10650 6250 2    60   ~ 0
TIM1_CH1
Text Label 1650 2950 0    60   ~ 0
USB_D-
Text Label 1650 3050 0    60   ~ 0
USB_D+
Text Label 1650 3250 0    60   ~ 0
SWCLK
Text Label 1650 3150 0    60   ~ 0
SWDIO
Text Label 10700 4400 2    60   ~ 0
USB_D-
Text Label 10700 4500 2    60   ~ 0
USB_D+
Text HLabel 10300 4400 0    60   BiDi ~ 0
USB_D-
Text HLabel 10300 4500 0    60   BiDi ~ 0
USB_D+
Text Label 6100 2050 2    60   ~ 0
BOOT0
Text Label 6100 2150 2    60   ~ 0
NRST
Text Label 10650 4000 2    60   ~ 0
SWDIO
Text Label 10650 4100 2    60   ~ 0
SWCLK
Text HLabel 10200 4000 0    60   BiDi ~ 0
SWDIO
Text HLabel 10200 4100 0    60   Input ~ 0
SWCLK
Text HLabel 10150 3900 0    60   BiDi ~ 0
NRST
Text Label 10650 3900 2    60   ~ 0
NRST
Text Label 10650 3800 2    60   ~ 0
BOOT0
Text HLabel 10200 3800 0    60   Input ~ 0
BOOT0
Text Label 8950 1100 2    60   ~ 0
UC_VDDA
$Comp
L C C101
U 1 1 554D2565
P 8100 1250
F 0 "C101" H 8100 1350 40  0000 L CNN
F 1 "10nF" H 8106 1165 40  0000 L CNN
F 2 "Capacitors_SMD:C_0603" H 8138 1100 30  0001 C CNN
F 3 "~" H 8100 1250 60  0000 C CNN
	1    8100 1250
	1    0    0    -1  
$EndComp
$Comp
L C C102
U 1 1 554D256B
P 8350 1250
F 0 "C102" H 8350 1350 40  0000 L CNN
F 1 "1uF" H 8356 1165 40  0000 L CNN
F 2 "Capacitors_SMD:C_0603" H 8388 1100 30  0001 C CNN
F 3 "~" H 8350 1250 60  0000 C CNN
	1    8350 1250
	1    0    0    -1  
$EndComp
$Comp
L GND #PWR07
U 1 1 554D2571
P 8100 1400
F 0 "#PWR07" H 8100 1400 30  0001 C CNN
F 1 "GND" H 8100 1330 30  0001 C CNN
F 2 "" H 8100 1400 60  0001 C CNN
F 3 "" H 8100 1400 60  0000 C CNN
	1    8100 1400
	1    0    0    -1  
$EndComp
$Comp
L GND #PWR08
U 1 1 554D2577
P 8350 1400
F 0 "#PWR08" H 8350 1400 30  0001 C CNN
F 1 "GND" H 8350 1330 30  0001 C CNN
F 2 "" H 8350 1400 60  0001 C CNN
F 3 "" H 8350 1400 60  0000 C CNN
	1    8350 1400
	1    0    0    -1  
$EndComp
Text Label 3800 850  3    60   ~ 0
UC_VDD_1
Text Label 3700 850  3    60   ~ 0
UC_VDD_2
Text Label 3600 850  3    60   ~ 0
UC_VDD_3
Text Label 3200 850  3    60   ~ 0
UC_VBAT
Text GLabel 7850 1100 0    60   Input ~ 0
VDDA
Text GLabel 7800 2000 0    60   Input ~ 0
VDD
Text Label 8900 2400 2    60   ~ 0
UC_VDDIO2
$Comp
L C C100
U 1 1 555F1DC2
P 8300 2550
F 0 "C100" H 8300 2650 40  0000 L CNN
F 1 "100nF" H 8306 2465 40  0000 L CNN
F 2 "Capacitors_SMD:C_0603" H 8338 2400 30  0001 C CNN
F 3 "~" H 8300 2550 60  0000 C CNN
	1    8300 2550
	1    0    0    -1  
$EndComp
$Comp
L GND #PWR09
U 1 1 555F1DC8
P 8300 2700
F 0 "#PWR09" H 8300 2700 30  0001 C CNN
F 1 "GND" H 8300 2630 30  0001 C CNN
F 2 "" H 8300 2700 60  0001 C CNN
F 3 "" H 8300 2700 60  0000 C CNN
	1    8300 2700
	1    0    0    -1  
$EndComp
Text Label 8900 3100 2    60   ~ 0
UC_VBAT
$Comp
L C C99
U 1 1 555F2103
P 8350 3250
F 0 "C99" H 8350 3350 40  0000 L CNN
F 1 "100nF" H 8356 3165 40  0000 L CNN
F 2 "Capacitors_SMD:C_0603" H 8388 3100 30  0001 C CNN
F 3 "~" H 8350 3250 60  0000 C CNN
	1    8350 3250
	1    0    0    -1  
$EndComp
$Comp
L GND #PWR010
U 1 1 555F2109
P 8350 3400
F 0 "#PWR010" H 8350 3400 30  0001 C CNN
F 1 "GND" H 8350 3330 30  0001 C CNN
F 2 "" H 8350 3400 60  0001 C CNN
F 3 "" H 8350 3400 60  0000 C CNN
	1    8350 3400
	1    0    0    -1  
$EndComp
$Comp
L GND #PWR011
U 1 1 553C7696
P 10850 1550
F 0 "#PWR011" H 10850 1550 30  0001 C CNN
F 1 "GND" H 10850 1480 30  0001 C CNN
F 2 "" H 10850 1550 60  0001 C CNN
F 3 "" H 10850 1550 60  0000 C CNN
	1    10850 1550
	1    0    0    -1  
$EndComp
Text Label 10350 750  0    60   ~ 0
UC_VDDA
$Comp
L C C98
U 1 1 553F0B58
P 8000 2550
F 0 "C98" H 8000 2650 40  0000 L CNN
F 1 "4.7uF" H 8006 2465 40  0000 L CNN
F 2 "Capacitors_SMD:C_0805" H 8038 2400 30  0001 C CNN
F 3 "~" H 8000 2550 60  0000 C CNN
	1    8000 2550
	1    0    0    -1  
$EndComp
$Comp
L GND #PWR012
U 1 1 553F0B5E
P 8000 2700
F 0 "#PWR012" H 8000 2700 30  0001 C CNN
F 1 "GND" H 8000 2630 30  0001 C CNN
F 2 "" H 8000 2700 60  0001 C CNN
F 3 "" H 8000 2700 60  0000 C CNN
	1    8000 2700
	1    0    0    -1  
$EndComp
Text Label 8850 2000 2    60   ~ 0
UC_VDD
Text Label 7600 2400 0    60   ~ 0
UC_VDD
Text Label 7600 3100 0    60   ~ 0
UC_VDD
Text Label 10350 1150 0    60   ~ 0
UC_VDD
Text Label 9200 2450 0    60   ~ 0
UC_VDD
$Comp
L C C104
U 1 1 553F0E05
P 10500 2000
F 0 "C104" H 10500 2100 40  0000 L CNN
F 1 "100nF" H 10506 1915 40  0000 L CNN
F 2 "Capacitors_SMD:C_0603" H 10538 1850 30  0001 C CNN
F 3 "~" H 10500 2000 60  0000 C CNN
	1    10500 2000
	1    0    0    -1  
$EndComp
Text Label 11000 1850 2    60   ~ 0
UC_VDD_1
$Comp
L GND #PWR013
U 1 1 553F0E20
P 10500 2150
F 0 "#PWR013" H 10500 2150 30  0001 C CNN
F 1 "GND" H 10500 2080 30  0001 C CNN
F 2 "" H 10500 2150 60  0001 C CNN
F 3 "" H 10500 2150 60  0000 C CNN
	1    10500 2150
	1    0    0    -1  
$EndComp
$Comp
L C C105
U 1 1 553EC9C3
P 10500 2600
F 0 "C105" H 10500 2700 40  0000 L CNN
F 1 "100nF" H 10506 2515 40  0000 L CNN
F 2 "Capacitors_SMD:C_0603" H 10538 2450 30  0001 C CNN
F 3 "~" H 10500 2600 60  0000 C CNN
	1    10500 2600
	1    0    0    -1  
$EndComp
Text Label 11000 2450 2    60   ~ 0
UC_VDD_2
$Comp
L GND #PWR014
U 1 1 553EC9CB
P 10500 2750
F 0 "#PWR014" H 10500 2750 30  0001 C CNN
F 1 "GND" H 10500 2680 30  0001 C CNN
F 2 "" H 10500 2750 60  0001 C CNN
F 3 "" H 10500 2750 60  0000 C CNN
	1    10500 2750
	1    0    0    -1  
$EndComp
$Comp
L C C106
U 1 1 553EC9D2
P 10500 3200
F 0 "C106" H 10500 3300 40  0000 L CNN
F 1 "100nF" H 10506 3115 40  0000 L CNN
F 2 "Capacitors_SMD:C_0603" H 10538 3050 30  0001 C CNN
F 3 "~" H 10500 3200 60  0000 C CNN
	1    10500 3200
	1    0    0    -1  
$EndComp
Text Label 11000 3050 2    60   ~ 0
UC_VDD_3
$Comp
L GND #PWR015
U 1 1 553EC9DA
P 10500 3350
F 0 "#PWR015" H 10500 3350 30  0001 C CNN
F 1 "GND" H 10500 3280 30  0001 C CNN
F 2 "" H 10500 3350 60  0001 C CNN
F 3 "" H 10500 3350 60  0000 C CNN
	1    10500 3350
	1    0    0    -1  
$EndComp
$Comp
L C C103
U 1 1 553ECA39
P 9650 2600
F 0 "C103" H 9650 2700 40  0000 L CNN
F 1 "4.7uF" H 9656 2515 40  0000 L CNN
F 2 "Capacitors_SMD:C_0805" H 9688 2450 30  0001 C CNN
F 3 "~" H 9650 2600 60  0000 C CNN
	1    9650 2600
	1    0    0    -1  
$EndComp
$Comp
L GND #PWR016
U 1 1 553ECA3F
P 9650 2750
F 0 "#PWR016" H 9650 2750 30  0001 C CNN
F 1 "GND" H 9650 2680 30  0001 C CNN
F 2 "" H 9650 2750 60  0001 C CNN
F 3 "" H 9650 2750 60  0000 C CNN
	1    9650 2750
	1    0    0    -1  
$EndComp
Text Label 2750 6500 3    60   ~ 0
OSC_IN
Text Label 2900 6450 0    60   ~ 0
OSC_OUT
Text Label 6100 2500 2    60   ~ 0
OSC_IN
Text Label 6100 2600 2    60   ~ 0
OSC_OUT
$Comp
L R R70
U 1 1 554120F0
P 3350 6700
F 0 "R70" V 3430 6700 40  0000 C CNN
F 1 "220" V 3357 6701 40  0000 C CNN
F 2 "Resistors_SMD:R_0603" V 3280 6700 30  0001 C CNN
F 3 "~" H 3350 6700 30  0000 C CNN
	1    3350 6700
	-1   0    0    1   
$EndComp
$Comp
L STM32F072RxTx U42
U 1 1 55440052
P 3950 3150
AR Path="/55440052" Ref="U42"  Part="1" 
AR Path="/55415645/55440052" Ref="U42"  Part="1" 
F 0 "U42" H 3950 3050 50  0000 C CNN
F 1 "STM32F072RxTx" H 4000 3250 50  0000 C CNN
F 2 "Housings_QFP:LQFP-64_10x10mm_Pitch0.5mm" H 3950 3150 50  0001 C CNN
F 3 "~" H 4000 3150 50  0001 C CNN
	1    3950 3150
	1    0    0    -1  
$EndComp
Text Label 1650 3600 0    60   ~ 0
PB0
Text HLabel 8700 5950 0    60   BiDi ~ 0
DIO0.[0..7]
Text HLabel 8050 4100 2    60   Output ~ 0
SPI0.SS[0..3]
Entry Wire Line
	7950 4200 8050 4300
Entry Wire Line
	7950 4300 8050 4400
Entry Wire Line
	7950 4400 8050 4500
Entry Wire Line
	7950 4500 8050 4600
Text Label 8050 4300 0    60   ~ 0
SPI0.SS0
Text Label 8050 4400 0    60   ~ 0
SPI0.SS1
Text Label 8050 4500 0    60   ~ 0
SPI0.SS2
Text Label 8050 4600 0    60   ~ 0
SPI0.SS3
Entry Wire Line
	8000 5600 8100 5700
Entry Wire Line
	8000 5500 8100 5600
Entry Wire Line
	8000 5400 8100 5500
Entry Wire Line
	8000 5300 8100 5400
Text Label 8100 5400 0    60   ~ 0
AIN0.0
Text Label 8100 5500 0    60   ~ 0
AIN0.1
Text Label 8100 5600 0    60   ~ 0
AIN0.2
Text Label 8100 5700 0    60   ~ 0
AIN0.3
Text HLabel 8100 5200 2    60   Input ~ 0
AIN0.[0..3]
Entry Wire Line
	8000 4950 8100 5050
Entry Wire Line
	8000 4850 8100 4950
Text Label 8100 4950 0    60   ~ 0
AOUT0.0
Text Label 8100 5050 0    60   ~ 0
AOUT0.1
Text HLabel 8100 4750 2    60   Output ~ 0
AOUT0.[0..1]
$Comp
L BAT54SW U43
U 1 1 5548DCF3
P 10850 1150
F 0 "U43" H 10850 950 40  0000 C CNN
F 1 "BAT54SW" H 10850 1350 40  0000 C CNN
F 2 "SMD_Packages:SOT-323" H 10850 1250 60  0001 C CNN
F 3 "~" V 10850 1150 60  0001 C CNN
	1    10850 1150
	1    0    0    -1  
$EndComp
NoConn ~ 5300 3300
NoConn ~ 5300 3400
NoConn ~ 5300 3500
NoConn ~ 5300 3600
$Comp
L Crystal Y1
U 1 1 55ACDA88
P 3050 6950
F 0 "Y1" H 3050 7100 50  0000 C CNN
F 1 "16Mhz" H 3050 6800 50  0000 C CNN
F 2 "Crystals:Crystal_HC49-SD_SMD" H 3050 6950 60  0001 C CNN
F 3 "" H 3050 6950 60  0000 C CNN
	1    3050 6950
	1    0    0    -1  
$EndComp
NoConn ~ 5300 4600
Text Label 1650 2550 0    60   ~ 0
PA7/TIM14_CH1
NoConn ~ 2450 3350
Text Label 650  6800 0    60   ~ 0
PC9/TIM3_CH4
Text Notes 3900 7650 0    60   ~ 0
DMA_CHANNEL1 - Box0 AIN0 (trigger from ADC)\nDMA_CHANNEL2 - Box0: maybe (future) DIO HighSpeed OUT\nDMA_CHANNEL3 - Box0 AOUT0 (trigger from TIM6, update DAC)\nDMA_CHANNEL4 - Box0 SPI0 (used for SPI2 RX)\nDMA_CHANNEL5 - Box0 SPI0 (used for SPI2 TX)\nDMA_CHANNEL6 - Box0 I2C0 (used for I2C1 TX)\nDMA_CHANNEL7 - Box0 I2C0 (used for I2C1 RX)\n\nTIM1  - Box0 PWM0\nTIM2  - Box0 PWM1\nTIM3  - Digital Power LED\nTIM6  - Box0 AOUT0 (trigger to DMA Channel3)\nTIM7\nTIM14 - Activity LED\nTIM15 - Box0 AIN0 (trigger to ADC)\nTIM16 - Analog Power LED\nTIM17 - Box0: possible use: with DMA Channel2
Text Notes 8900 3450 0    60   ~ 0
Note: Near to uC
$Comp
L LED D1
U 1 1 55E9EF3B
P 1950 6300
F 0 "D1" H 1950 6400 50  0000 C CNN
F 1 "LED_RED" H 1950 6200 50  0000 C CNN
F 2 "LEDs:LED-0603" H 1950 6300 60  0001 C CNN
F 3 "~" H 1950 6300 60  0000 C CNN
	1    1950 6300
	-1   0    0    -1  
$EndComp
$Comp
L R R1
U 1 1 55E9EF41
P 1550 6300
F 0 "R1" V 1630 6300 40  0000 C CNN
F 1 "510" V 1557 6301 40  0000 C CNN
F 2 "Resistors_SMD:R_0603" V 1480 6300 30  0001 C CNN
F 3 "~" H 1550 6300 30  0000 C CNN
	1    1550 6300
	0    1    1    0   
$EndComp
$Comp
L GND #PWR017
U 1 1 55E9EF47
P 2150 6450
F 0 "#PWR017" H 2150 6450 30  0001 C CNN
F 1 "GND" H 2150 6380 30  0001 C CNN
F 2 "" H 2150 6450 60  0001 C CNN
F 3 "" H 2150 6450 60  0000 C CNN
	1    2150 6450
	1    0    0    -1  
$EndComp
Text Notes 1600 6550 2    60   ~ 0
Analog
Text Label 650  6300 0    60   ~ 0
PA6/TIM16_CH1
Text Notes 1700 7600 2    60   ~ 0
Activity
Entry Wire Line
	1550 3500 1650 3600
Entry Wire Line
	1550 3600 1650 3700
Entry Wire Line
	1550 3700 1650 3800
Entry Wire Line
	1550 3800 1650 3900
Entry Wire Line
	1550 3900 1650 4000
Entry Wire Line
	1550 4000 1650 4100
Entry Wire Line
	1550 4100 1650 4200
Entry Wire Line
	1550 4200 1650 4300
Text Label 1150 3400 0    60   ~ 0
PB[0..7]
Text Label 9200 5950 2    60   ~ 0
PB[0..7]
NoConn ~ 5300 2950
Text Label 6100 4200 2    60   ~ 0
PC9/TIM3_CH4
NoConn ~ 5300 4500
NoConn ~ 5300 4400
NoConn ~ 5300 4300
NoConn ~ 2450 4600
Text Label 10700 5950 2    60   ~ 0
TIM2_CH4
Text Label 1650 2450 0    60   ~ 0
PA6/TIM16_CH1
Wire Wire Line
	3650 5600 3650 5650
Wire Wire Line
	2900 6450 3350 6450
Wire Wire Line
	4150 5600 4150 5650
Connection ~ 3350 6950
Wire Wire Line
	7850 1100 8950 1100
Wire Wire Line
	7600 2400 8900 2400
Connection ~ 8300 2400
Wire Wire Line
	7600 3100 8900 3100
Connection ~ 8350 3100
Wire Notes Line
	7450 550  11150 550 
Connection ~ 8100 1100
Connection ~ 8350 1100
Connection ~ 8000 2400
Wire Wire Line
	7800 2000 8850 2000
Wire Wire Line
	9200 2450 11000 2450
Wire Wire Line
	9900 1850 9900 3050
Wire Wire Line
	9900 1850 11000 1850
Connection ~ 10250 1850
Connection ~ 10250 2450
Wire Wire Line
	9900 3050 11000 3050
Connection ~ 10250 3050
Connection ~ 9650 2450
Wire Wire Line
	2750 6950 2750 6500
Wire Notes Line
	2350 6100 2350 7700
Wire Notes Line
	2350 7700 3750 7700
Wire Notes Line
	3750 7700 3750 6100
Wire Notes Line
	3750 6100 2350 6100
Wire Wire Line
	3200 1350 3200 850 
Wire Wire Line
	3450 850  3450 1350
Wire Wire Line
	3600 850  3600 1350
Wire Wire Line
	3700 850  3700 1350
Wire Wire Line
	3800 850  3800 1350
Wire Wire Line
	4200 1350 4200 850 
Connection ~ 9900 2450
Wire Wire Line
	650  7350 1400 7350
Wire Wire Line
	1750 7350 1700 7350
Wire Wire Line
	1700 6800 1750 6800
Wire Wire Line
	10350 750  10850 750 
Wire Wire Line
	10350 1150 10850 1150
Wire Wire Line
	3500 5600 3800 5600
Connection ~ 3600 5600
Connection ~ 3650 5600
Connection ~ 3700 5600
Wire Wire Line
	8450 3750 9350 3750
Wire Wire Line
	8450 3850 9350 3850
Wire Wire Line
	8450 3950 9350 3950
Wire Wire Line
	8050 4300 9350 4300
Wire Wire Line
	8050 4400 9350 4400
Wire Wire Line
	8050 4500 9350 4500
Wire Wire Line
	8050 4600 9350 4600
Wire Wire Line
	8100 5400 9200 5400
Wire Wire Line
	8100 5500 9200 5500
Wire Wire Line
	8100 5600 9200 5600
Wire Wire Line
	8100 5700 9200 5700
Wire Wire Line
	10300 4400 10700 4400
Wire Wire Line
	10300 4500 10700 4500
Wire Wire Line
	10200 4000 10650 4000
Wire Wire Line
	10200 4100 10650 4100
Wire Wire Line
	10150 3900 10650 3900
Wire Wire Line
	10650 3800 10200 3800
Wire Wire Line
	10850 5550 10500 5550
Wire Wire Line
	10850 5250 10500 5250
Wire Wire Line
	10500 5350 10850 5350
Wire Wire Line
	10500 5650 10850 5650
Wire Wire Line
	10800 4800 10300 4800
Wire Wire Line
	10300 4900 10800 4900
Wire Wire Line
	8600 6200 9150 6200
Wire Wire Line
	8600 6300 9150 6300
Wire Wire Line
	10150 5950 10700 5950
Wire Wire Line
	10150 6250 10650 6250
Wire Wire Line
	2450 1850 1650 1850
Wire Wire Line
	2450 1950 1650 1950
Wire Wire Line
	2450 2050 1650 2050
Wire Wire Line
	2450 2150 1650 2150
Wire Wire Line
	2450 2250 1650 2250
Wire Wire Line
	2450 2350 1650 2350
Wire Wire Line
	2450 2650 1650 2650
Wire Wire Line
	2450 2750 1650 2750
Wire Wire Line
	2450 2850 1650 2850
Wire Wire Line
	2450 2950 1650 2950
Wire Wire Line
	2450 3050 1650 3050
Wire Wire Line
	2450 3150 1650 3150
Wire Wire Line
	2450 3250 1650 3250
Wire Wire Line
	2450 3600 1650 3600
Wire Wire Line
	2450 3700 1650 3700
Wire Wire Line
	2450 3800 1650 3800
Wire Wire Line
	2450 3900 1650 3900
Wire Wire Line
	2450 4000 1650 4000
Wire Wire Line
	2450 4100 1650 4100
Wire Wire Line
	2450 4200 1650 4200
Wire Wire Line
	2450 4300 1650 4300
Wire Wire Line
	1650 4400 2450 4400
Wire Wire Line
	1650 4500 2450 4500
Wire Wire Line
	2450 4700 1650 4700
Wire Wire Line
	2450 4800 1650 4800
Wire Wire Line
	2450 4900 1650 4900
Wire Wire Line
	2450 5000 1650 5000
Wire Wire Line
	2450 5100 1650 5100
Wire Wire Line
	5300 2050 6100 2050
Wire Wire Line
	5300 2150 6100 2150
Wire Wire Line
	5300 2500 6100 2500
Wire Wire Line
	6100 2600 5300 2600
Wire Wire Line
	5300 3900 6100 3900
Wire Wire Line
	5300 4000 6100 4000
Wire Wire Line
	5300 4100 6100 4100
Wire Bus Line
	7950 4100 7950 4500
Wire Bus Line
	7950 4100 8050 4100
Wire Bus Line
	8000 5200 8000 5600
Wire Bus Line
	8000 5200 8100 5200
Wire Wire Line
	8100 4950 9250 4950
Wire Wire Line
	8100 5050 9250 5050
Wire Bus Line
	8100 4750 8000 4750
Wire Bus Line
	8000 4750 8000 4950
Connection ~ 2750 6950
Wire Wire Line
	2900 6950 2750 6950
Wire Wire Line
	3200 6950 3350 6950
Wire Wire Line
	3350 6450 3350 6550
Wire Wire Line
	3350 6950 3350 6850
Wire Wire Line
	1650 2550 2450 2550
Wire Notes Line
	6850 6100 3850 6100
Wire Notes Line
	3850 7700 6850 7700
Wire Notes Line
	7450 3550 11150 3550
Wire Notes Line
	11150 3550 11150 550 
Wire Notes Line
	7450 3550 7450 550 
Wire Notes Line
	6850 7700 6850 6100
Wire Notes Line
	3850 6100 3850 7700
Wire Notes Line
	10200 550  10200 1700
Wire Notes Line
	7450 1700 11150 1700
Wire Wire Line
	650  6300 1400 6300
Wire Wire Line
	1700 6300 1750 6300
Wire Bus Line
	1550 3400 1550 4200
Wire Bus Line
	1550 3400 1150 3400
Wire Bus Line
	8700 5950 9200 5950
Wire Wire Line
	5300 4200 6100 4200
Wire Wire Line
	2150 6450 2150 6300
Wire Wire Line
	2150 6950 2150 6800
Wire Wire Line
	2150 7350 2150 7500
Wire Notes Line
	600  6100 600  7700
Wire Notes Line
	600  7700 2250 7700
Wire Notes Line
	2250 7700 2250 6100
Wire Notes Line
	2250 6100 600  6100
Wire Notes Line
	2250 6600 600  6600
Wire Notes Line
	2250 7150 600  7150
Wire Notes Line
	11150 3650 7850 3650
Wire Notes Line
	7850 5800 11150 5800
Wire Notes Line
	11150 6050 7850 6050
Wire Notes Line
	7850 4650 11150 4650
Wire Notes Line
	7850 5100 11150 5100
Wire Wire Line
	1650 2450 2450 2450
Wire Notes Line
	9450 4250 11150 4250
Wire Notes Line
	7850 6400 11150 6400
Wire Notes Line
	9450 6400 9450 3650
Wire Notes Line
	7850 3650 7850 6400
Wire Notes Line
	11150 6400 11150 3650
Wire Wire Line
	1400 6800 650  6800
Wire Wire Line
	5300 4700 6100 4700
Wire Wire Line
	5300 4800 6100 4800
Text Label 6100 4700 2    60   ~ 0
PC14
Text Label 6100 4800 2    60   ~ 0
PC15
Text Label 10850 5650 2    60   ~ 0
PC15
Text Label 10850 5550 2    60   ~ 0
PC14
Wire Wire Line
	5300 3800 6100 3800
Text Label 6100 3800 2    60   ~ 0
PC5
Text Label 10850 5250 2    60   ~ 0
PC5
Text Label 6100 3700 2    60   ~ 0
PC4
Wire Wire Line
	6100 3700 5300 3700
Text Label 10850 5350 2    60   ~ 0
PC4
$Comp
L C C10
U 1 1 55FF9F1A
P 8100 3250
F 0 "C10" H 8100 3350 40  0000 L CNN
F 1 "1uF" H 8106 3165 40  0000 L CNN
F 2 "Capacitors_SMD:C_0603" H 8138 3100 30  0001 C CNN
F 3 "~" H 8100 3250 60  0000 C CNN
	1    8100 3250
	1    0    0    -1  
$EndComp
$Comp
L GND #PWR018
U 1 1 55FF9F20
P 8100 3400
F 0 "#PWR018" H 8100 3400 30  0001 C CNN
F 1 "GND" H 8100 3330 30  0001 C CNN
F 2 "" H 8100 3400 60  0001 C CNN
F 3 "" H 8100 3400 60  0000 C CNN
	1    8100 3400
	1    0    0    -1  
$EndComp
Connection ~ 8100 3100
$Comp
L C C16
U 1 1 55FFA06A
P 10250 2000
F 0 "C16" H 10250 2100 40  0000 L CNN
F 1 "1uF" H 10256 1915 40  0000 L CNN
F 2 "Capacitors_SMD:C_0603" H 10288 1850 30  0001 C CNN
F 3 "~" H 10250 2000 60  0000 C CNN
	1    10250 2000
	1    0    0    -1  
$EndComp
$Comp
L GND #PWR019
U 1 1 55FFA070
P 10250 2150
F 0 "#PWR019" H 10250 2150 30  0001 C CNN
F 1 "GND" H 10250 2080 30  0001 C CNN
F 2 "" H 10250 2150 60  0001 C CNN
F 3 "" H 10250 2150 60  0000 C CNN
	1    10250 2150
	1    0    0    -1  
$EndComp
$Comp
L C C17
U 1 1 55FFA0D9
P 10250 2600
F 0 "C17" H 10250 2700 40  0000 L CNN
F 1 "1uF" H 10256 2515 40  0000 L CNN
F 2 "Capacitors_SMD:C_0603" H 10288 2450 30  0001 C CNN
F 3 "~" H 10250 2600 60  0000 C CNN
	1    10250 2600
	1    0    0    -1  
$EndComp
$Comp
L GND #PWR020
U 1 1 55FFA0DF
P 10250 2750
F 0 "#PWR020" H 10250 2750 30  0001 C CNN
F 1 "GND" H 10250 2680 30  0001 C CNN
F 2 "" H 10250 2750 60  0001 C CNN
F 3 "" H 10250 2750 60  0000 C CNN
	1    10250 2750
	1    0    0    -1  
$EndComp
$Comp
L C C20
U 1 1 55FFA14B
P 10250 3200
F 0 "C20" H 10250 3300 40  0000 L CNN
F 1 "1uF" H 10256 3115 40  0000 L CNN
F 2 "Capacitors_SMD:C_0603" H 10288 3050 30  0001 C CNN
F 3 "~" H 10250 3200 60  0000 C CNN
	1    10250 3200
	1    0    0    -1  
$EndComp
$Comp
L GND #PWR021
U 1 1 55FFA151
P 10250 3350
F 0 "#PWR021" H 10250 3350 30  0001 C CNN
F 1 "GND" H 10250 3280 30  0001 C CNN
F 2 "" H 10250 3350 60  0001 C CNN
F 3 "" H 10250 3350 60  0000 C CNN
	1    10250 3350
	1    0    0    -1  
$EndComp
Connection ~ 10500 3050
Connection ~ 10500 2450
Connection ~ 10500 1850
$EndSCHEMATC
